%YAML 1.1
%TAG !u! tag:unity3d.com,2011:
--- !u!1045 &1
EditorBuildSettings:
  m_ObjectHideFlags: 0
  serializedVersion: 2
  m_Scenes:
  - enabled: 0
    path: 
    guid: 00000000000000000000000000000000
  - enabled: 1
    path: Assets/Scenes/Menu.unity
    guid: e5158ec7e3cb7ca43bc50decb0faf007
  - enabled: 1
    path: Assets/Scenes/Juego.unity
    guid: 346ab25bf9ec1e645bb38dea4ce99d25
  - enabled: 1
    path: Assets/Scenes/Perdiste.unity
    guid: d72ef938bb165c94bad66c9db945dd07
  - enabled: 1
    path: Assets/Scenes/Ganaste.unity
    guid: 1f6bfac64b1d5f649971bf0b8ab9c9cb
  m_configObjects: {}
